<?xml version="1.0" encoding="utf-8"?>
<!-- Generator: Adobe Illustrator 16.0.0, SVG Export Plug-In . SVG Version: 6.00 Build 0)  -->
<!DOCTYPE svg PUBLIC "-//W3C//DTD SVG 1.1//EN" "http://www.w3.org/Graphics/SVG/1.1/DTD/svg11.dtd">
<svg version="1.1" id="Calque_1" xmlns="http://www.w3.org/2000/svg" xmlns:xlink="http://www.w3.org/1999/xlink" x="0px" y="0px"
	 width="783.455px" height="143.633px" viewBox="12 12 783.455 143.633" enable-background="new 12 12 783.455 143.633"
	 xml:space="preserve">
<rect x="12" y="12" fill="#FFED00" width="783.455" height="143.633"/>
<g>
	<polygon fill="#0C3183" points="57.022,37.313 35.926,37.313 35.926,135.882 80.139,135.882 80.139,116.409 57.022,116.409 	"/>
	<rect x="93.79" y="37.313" fill="#0C3183" width="21.1" height="98.568"/>
	<polygon fill="#0C3183" points="126.658,56.794 144.718,56.794 144.718,135.882 165.82,135.882 165.82,56.794 183.883,56.794 
		183.883,37.313 126.658,37.313 	"/>
	<rect x="274.288" y="37.313" fill="#0C3183" width="21.103" height="98.568"/>
	<polygon fill="#0C3183" points="358.014,100.057 346.857,37.298 313.257,37.298 313.257,135.898 334.482,135.898 334.482,63.372 
		346.188,135.898 369.082,135.898 380.001,63.677 380.001,135.898 402.005,135.898 402.005,37.298 368.792,37.298 	"/>
	<path fill="#0C3183" d="M462.349,37.313h-25.986l-21.989,98.039l-0.118,0.529h21.87l3.003-18.604h19.858l3.125,18.604h21.864
		l-21.552-98.227L462.349,37.313z M442.164,98.618l6.716-41.172l6.951,41.172H442.164z"/>
	<path fill="#0C3183" d="M616.927,97.133c-0.128,16.461-3.487,24.463-10.271,24.463c-8.086,0-12.469-5.654-12.469-35.492
		c0-24.185,3.581-34.502,11.973-34.502c6.575,0,9.259,5.818,9.259,20.084v0.443h19.945V67.58c0-21.96-9.239-32.188-29.078-32.188
		c-30.428,0-32.976,26.176-32.976,50.711c0,12.695,0.62,27.004,5.225,36.853c4.672,9.996,13.096,14.854,25.748,14.854
		c28.047,0,31.828-18.832,31.828-37.254v-3.863H616.93L616.927,97.133z"/>
	<polygon fill="#0C3183" points="686.173,73.849 670.903,73.849 670.903,37.313 649.806,37.313 649.806,135.882 670.903,135.882 
		670.903,94.148 686.173,94.148 686.173,135.882 707.268,135.882 707.268,37.313 686.173,37.313 	"/>
	<polygon fill="#0C3183" points="764.76,29.259 757.997,19.526 723.737,31.72 728.596,36.049 	"/>
	<polygon fill="#0C3183" points="741.784,116.409 741.784,94.97 769.483,94.97 769.483,75.49 741.784,75.49 741.784,56.794 
		771.292,56.794 771.292,37.313 720.688,37.313 720.688,135.882 772.614,135.882 772.614,116.409 	"/>
	<path fill="#0C3183" d="M243.509,86.386c16.478-4.084,18.296-18.076,18.296-24.033c0-16.055-11.313-25.639-30.263-25.639h-36.277
		v98.601h23.829V95.831c8.009,0.004,10.786,0.229,14.409,12.987l7.657,26.494h25l-10.259-32.481
		C252.353,91.505,249.525,87.581,243.509,86.386z M224.96,78.44h-6.707V54.104h6.568c10.865,0,13.146,6.465,13.146,11.887
		C237.968,73.554,232.862,78.44,224.96,78.44z"/>
	<path fill="#0C3183" d="M543.561,86.386c16.467-4.085,18.288-18.076,18.288-24.033c0-16.055-11.313-25.639-30.259-25.639h-36.283
		v98.601h23.834V95.831c8.009,0.004,10.786,0.229,14.412,12.987L541.112,135l0.09,0.313h25.001l-10.253-32.481
		C552.403,91.505,549.575,87.581,543.561,86.386z M525.01,78.44h-6.713V54.104h6.57c10.865,0,13.146,6.465,13.146,11.887
		C538.014,73.554,532.91,78.44,525.01,78.44z"/>
</g>
<g>
	<path fill="#0C3183" d="M779.052,128.116c-2.23,0-4.046,1.813-4.046,4.045s1.814,4.046,4.046,4.046c2.23,0,4.046-1.814,4.046-4.046
		C783.098,129.932,781.283,128.116,779.052,128.116z M779.052,135.585c-1.889,0-3.423-1.535-3.423-3.424
		c0-1.888,1.534-3.423,3.423-3.423c1.888,0,3.423,1.535,3.423,3.423C782.475,134.05,780.94,135.585,779.052,135.585z"/>
	<path fill="#0C3183" d="M780.033,132.589c-0.082-0.084-0.2-0.168-0.356-0.254c0.428-0.067,0.746-0.226,0.951-0.474
		c0.205-0.247,0.309-0.551,0.309-0.911c0-0.281-0.063-0.537-0.189-0.769c-0.123-0.229-0.289-0.393-0.495-0.481
		c-0.205-0.095-0.509-0.14-0.906-0.14h-1.988v5.104h0.603v-2.271h0.686c0.15,0,0.26,0.008,0.326,0.024
		c0.094,0.024,0.182,0.067,0.27,0.135c0.088,0.063,0.188,0.179,0.302,0.341c0.11,0.164,0.254,0.396,0.426,0.707l0.59,1.063h0.738
		l-0.771-1.396C780.371,132.997,780.207,132.771,780.033,132.589z M779.226,131.807h-1.271v-1.681h1.41
		c0.33,0,0.572,0.076,0.726,0.231c0.153,0.154,0.229,0.353,0.229,0.593c0,0.164-0.041,0.315-0.119,0.457
		c-0.082,0.139-0.192,0.239-0.346,0.305C779.705,131.773,779.496,131.807,779.226,131.807z"/>
</g>
</svg>
